…
Below is a table summarizing the number of items ordered from aisle. In
total, there are 134 aisles, with fresh vegetables and fresh fruits
holding the most items ordered by far.

``` r
instacart %>% 
  count(aisle) %>% 
  arrange(desc(n))
```

    ## # A tibble: 134 × 2
    ##    aisle                              n
    ##    <chr>                          <int>
    ##  1 fresh vegetables              150609
    ##  2 fresh fruits                  150473
    ##  3 packaged vegetables fruits     78493
    ##  4 yogurt                         55240
    ##  5 packaged cheese                41699
    ##  6 water seltzer sparkling water  36617
    ##  7 milk                           32644
    ##  8 chips pretzels                 31269
    ##  9 soy lactosefree                26240
    ## 10 bread                          23635
    ## # … with 124 more rows
…
``` r
accel_1=
  read.csv("accel_data.csv") %>% 
  janitor::clean_names() %>% 
  pivot_longer(
    activity_1:activity_1440,
    names_to = "activity_num",
    values_to = "activity_minutes") %>%
  janitor::clean_names()
accel_1
```

    ## # A tibble: 50,400 × 5
    ##     week day_id day    activity_num activity_minutes
    ##    <int>  <int> <chr>  <chr>                   <dbl>
    ##  1     1      1 Friday activity_1               88.4
    ##  2     1      1 Friday activity_2               82.2
    ##  3     1      1 Friday activity_3               64.4
    ##  4     1      1 Friday activity_4               70.0
    ##  5     1      1 Friday activity_5               75.0
    ##  6     1      1 Friday activity_6               66.3
    ##  7     1      1 Friday activity_7               53.8
    ##  8     1      1 Friday activity_8               47.8
    ##  9     1      1 Friday activity_9               55.5
    ## 10     1      1 Friday activity_10              43.0
    ## # … with 50,390 more rows
…
Below is a table summarizing the number of different weather stations
that have collected data. In total, there are 747 weather stations
represented, with US1NYCN0011, US1NYCES0005, and USNYSF0030 with the
least amount of data entries (days of weather information) all three
having 30 days of entries.

``` r
ny_noaa %>% 
  count(id) %>% 
  arrange(desc(n))
```

    ## # A tibble: 747 × 2
    ##    id              n
    ##    <chr>       <int>
    ##  1 USC00300055 10957
    ##  2 USC00300343 10957
    ##  3 USC00300889 10957
    ##  4 USC00304772 10957
    ##  5 USC00304836 10957
    ##  6 USC00304912 10957
    ##  7 USC00305426 10957
    ##  8 USC00305714 10957
    ##  9 USC00306196 10957
    ## 10 USC00309425 10957
    ## # … with 737 more rows

Do some data cleaning. Create separate variables for year, month, and
day.

``` r
 ny_noaa_tidy1=
  ny_noaa %>% 
  janitor::clean_names() %>% 
   separate(date, into = c("year", "month", "day")) %>% 
  mutate(year = as.integer(year), month = as.integer(month), day = as.integer(day)) %>% 
  mutate(month = month.name[as.integer(month)])
ny_noaa_tidy1
```

    ## # A tibble: 2,595,176 × 9
    ##    id           year month      day  prcp  snow  snwd tmax  tmin 
    ##    <chr>       <int> <chr>    <int> <int> <int> <int> <chr> <chr>
    ##  1 US1NYAB0001  2007 November     1    NA    NA    NA <NA>  <NA> 
    ##  2 US1NYAB0001  2007 November     2    NA    NA    NA <NA>  <NA> 
    ##  3 US1NYAB0001  2007 November     3    NA    NA    NA <NA>  <NA> 
    ##  4 US1NYAB0001  2007 November     4    NA    NA    NA <NA>  <NA> 
    ##  5 US1NYAB0001  2007 November     5    NA    NA    NA <NA>  <NA> 
    ##  6 US1NYAB0001  2007 November     6    NA    NA    NA <NA>  <NA> 
    ##  7 US1NYAB0001  2007 November     7    NA    NA    NA <NA>  <NA> 
    ##  8 US1NYAB0001  2007 November     8    NA    NA    NA <NA>  <NA> 
    ##  9 US1NYAB0001  2007 November     9    NA    NA    NA <NA>  <NA> 
    ## 10 US1NYAB0001  2007 November    10    NA    NA    NA <NA>  <NA> 
    ## # … with 2,595,166 more rows
…
  janitor::clean_names() %>% 
   separate(date, into = c("year", "month", "day")) %>% 
  mutate(year = as.integer(year), month = as.integer(month), day = as.integer(day)) %>% 
  mutate(month = month.name[as.integer(month)]) %>% 
  mutate(tmin= as.numeric(tmin)) %>% 
  mutate(tmin = as.numeric(tmin / 10)) %>%
  mutate(tmax= as.numeric(tmax)) %>% 
  mutate(tmax = as.numeric(tmax / 10)) %>%
  mutate(prcp= as.numeric(prcp)) %>% 
  mutate(prcp = as.numeric(prcp / 10)) %>% 
 select(id, year, month, day, prcp, snow, snwd, tmax, tmin)
ny_noaa_tidy2
```

    ## # A tibble: 2,000 × 9
    ##    id           year month      day  prcp  snow  snwd  tmax  tmin
    ##    <chr>       <int> <chr>    <int> <dbl> <int> <int> <dbl> <dbl>
    ##  1 USC00309303  1995 October      3   0       0     0  NA    NA  
    ##  2 USW00094790  1989 January      8   2       0     0   7.2  -2.8
    ##  3 USC00309544  1992 August       9  19.8     0     0  NA    NA  
    ##  4 USC00305032  1986 May          4   0.3     0     0  NA    NA  
    ##  5 USC00300452  1992 January     15  16.5     0     0  NA    NA  
    ##  6 USW00014743  2008 November    27   2      76    76   1.1  -3.3
    ##  7 US1NYCR0003  2005 November    12   0       0    NA  NA    NA  
    ##  8 US1NYTM0021  2008 July        16  NA      NA    NA  NA    NA  
    ##  9 US1NYCY0003  2006 July        24   0      NA    NA  NA    NA  
    ## 10 USC00309507  1990 October     28   5.6     0     0  NA    NA  
    ## # … with 1,990 more rows

For snowfall what are the most commonly observed values. Why? –\>We see
that`0` was observed 2008508 times, `25` was observed 31022 times, and
`13` was observed 23095 times. There was no data for data entries 381221
times. I would assume `0` was measured so many times because on those
days no snow fell, therefore the measured snowfall would be 0.

``` r
ny_noaa_tidy2 %>% 
  count(snow) %>% 
arrange(desc(n))
```

    ## # A tibble: 46 × 2
    ##     snow     n
    ##    <int> <int>
    ##  1     0  1539
    ##  2    NA   294
    ##  3    25    28
    ##  4    13    18
    ##  5    51    16
    ##  6    76    10
    ##  7     8     9
    ##  8     5     6
    ##  9    64     6
    ## 10     3     5
    ## # … with 36 more rows
…
